{
	"info": {
		"_postman_id": "405425ef-e622-4722-b331-9d0f61987e2c",
		"name": "ocistok",
		"schema": "https://schema.getpostman.com/json/collection/v2.1.0/collection.json",
		"_exporter_id": "13741970",
		"_collection_link": "https://ptamidev.postman.co/workspace/ocistok~fe90547f-3fc5-4d91-86a4-cfc18dd261d6/collection/13741970-405425ef-e622-4722-b331-9d0f61987e2c?action=share&source=collection_link&creator=13741970"
	},
	"item": [
		{
			"name": "calculate loan",
			"request": {
				"method": "POST",
				"header": [],
				"body": {
					"mode": "raw",
					"raw": "{\n    \"startDate\": \"2024-05-20\",\n    \"monthlyPeriod\": 6,\n    \"principal\": 5000000,\n    \"annualRate\": 8\n}",
					"options": {
						"raw": {
							"language": "json"
						}
					}
				},
				"url": {
					"raw": "http://localhost:8081/calculate/loan",
					"protocol": "http",
					"host": [
						"localhost"
					],
					"port": "8081",
					"path": [
						"calculate",
						"loan"
					]
				}
			},
			"response": [
				{
					"name": "calculate loan",
					"originalRequest": {
						"method": "POST",
						"header": [],
						"body": {
							"mode": "raw",
							"raw": "{\n    \"startDate\": \"2024-05-20\",\n    \"monthlyPeriod\": 6,\n    \"principal\": 5000000,\n    \"annualRate\": 8\n}",
							"options": {
								"raw": {
									"language": "json"
								}
							}
						},
						"url": {
							"raw": "http://localhost:8081/calculate/loan",
							"protocol": "http",
							"host": [
								"localhost"
							],
							"port": "8081",
							"path": [
								"calculate",
								"loan"
							]
						}
					},
					"status": "OK",
					"code": 200,
					"_postman_previewlanguage": "json",
					"header": [
						{
							"key": "Content-Type",
							"value": "application/json"
						},
						{
							"key": "Date",
							"value": "Mon, 20 May 2024 16:03:57 GMT"
						},
						{
							"key": "Content-Length",
							"value": "889"
						}
					],
					"cookie": [],
					"body": "[\n    {\n        \"no\": 1,\n        \"date\": \"2024-05-20\",\n        \"monthlyPayment\": \"872651.42\",\n        \"monthlyPaymentBasic\": \"805985\",\n        \"monthlyRatePayment\": \"66667\",\n        \"remainingPrincipal\": \"4194015\"\n    },\n    {\n        \"no\": 2,\n        \"date\": \"2024-05-21\",\n        \"monthlyPayment\": \"872651.42\",\n        \"monthlyPaymentBasic\": \"816731\",\n        \"monthlyRatePayment\": \"55920\",\n        \"remainingPrincipal\": \"3377284\"\n    },\n    {\n        \"no\": 3,\n        \"date\": \"2024-05-22\",\n        \"monthlyPayment\": \"872651.42\",\n        \"monthlyPaymentBasic\": \"827621\",\n        \"monthlyRatePayment\": \"45030\",\n        \"remainingPrincipal\": \"2549663\"\n    },\n    {\n        \"no\": 4,\n        \"date\": \"2024-05-23\",\n        \"monthlyPayment\": \"872651.42\",\n        \"monthlyPaymentBasic\": \"838656\",\n        \"monthlyRatePayment\": \"33996\",\n        \"remainingPrincipal\": \"1711007\"\n    },\n    {\n        \"no\": 5,\n        \"date\": \"2024-05-24\",\n        \"monthlyPayment\": \"872651.42\",\n        \"monthlyPaymentBasic\": \"849838\",\n        \"monthlyRatePayment\": \"22813\",\n        \"remainingPrincipal\": \"861169\"\n    },\n    {\n        \"no\": 6,\n        \"date\": \"2024-05-25\",\n        \"monthlyPayment\": \"872651.42\",\n        \"monthlyPaymentBasic\": \"861169\",\n        \"monthlyRatePayment\": \"11482\",\n        \"remainingPrincipal\": \"0\"\n    }\n]"
				}
			]
		}
	]
}